Model
…
mod_e %>% glance()

## # A tibble: 1 x 11
##   r.squared adj.r.squared sigma statistic   p.value    df logLik    AIC
##       <dbl>         <dbl> <dbl>     <dbl>     <dbl> <int>  <dbl>  <dbl>
## 1     0.120         0.119 0.992      715. 8.41e-148     2 -7428. 14862.
## #  with 3 more variables: BIC <dbl>, deviance <dbl>, df.residual <int>

mod_e %>% augment()

## # A tibble: 5,264 x 10
##    .rownames log.income. education .fitted .se.fit  .resid    .hat .sigma
##    <chr>           <dbl>     <int>   <dbl>   <dbl>   <dbl>   <dbl>  <dbl>
##  1 1                9.85        13   10.4   0.0140 -0.549  1.99e-4  0.992
##  2 2               10.5         10    9.98  0.0234  0.487  5.54e-4  0.992
##  3 3               11.6         16   10.8   0.0188  0.735  3.59e-4  0.992
##  4 4               10.6         14   10.5   0.0139  0.0532 1.95e-4  0.992
##  5 5               11.2         14   10.5   0.0139  0.682  1.95e-4  0.992
##  6 6               11.5         18   11.1   0.0272  0.422  7.51e-4  0.992
##  7 7               11.2         12   10.3   0.0160  0.896  2.60e-4  0.992
##  8 8               11.0         12   10.3   0.0160  0.742  2.60e-4  0.992
##  9 9               11.9         13   10.4   0.0140  1.52   1.99e-4  0.992
## 10 10              11.7         16   10.8   0.0188  0.826  3.59e-4  0.992
## #  with 5,254 more rows, and 2 more variables: .cooksd <dbl>,
## #   .std.resid <dbl>

mod_e %>% augment(data = wages)

## # A tibble: 5,264 x 15
##    income height weight   age marital sex   education  afqt .fitted .se.fit
##     <int>  <dbl>  <int> <int> <fct>   <fct>     <int> <dbl>   <dbl>   <dbl>
##  1  19000     60    155    53 married fema        13  6.84   10.4   0.0140
##  2  35000     70    156    51 married fema        10 49.4     9.98  0.0234
##  3 105000     65    195    52 married male         16 99.4    10.8   0.0188
##  4  40000     63    197    54 married fema        14 44.0    10.5   0.0139
##  5  75000     66    190    49 married male         14 59.7    10.5   0.0139
##  6 102000     68    200    49 divorc fema        18 98.8    11.1   0.0272
##  7  70000     64    160    54 divorc fema        12 50.3    10.3   0.0160
##  8  60000     69    162    55 divorc male         12 89.7    10.3   0.0160
##  9 150000     69    194    54 divorc male         13 96.0    10.4   0.0140
## 10 115000     64    145    53 married fema        16 67.0    10.8   0.0188
## #  with 5,254 more rows, and 5 more variables: .resid <dbl>, .hat <dbl>,
## #   .sigma <dbl>, .cooksd <dbl>, .std.resid <dbl>
…
Your Turn 7

Use one of spread_predictions() or gather_predictions() to make a line graph of height vs pred colored by model for each of mod_h, mod_eh, and mod_ehs. Are the results interpretable?

Add + facet_grid(sex ~ education) to the end of your code. What happens?

mod_h <- wages %>% lm(log(income) ~ height, data = .)
mod_eh <- wages %>% lm(log(income) ~ education + height, data = .)
mod_ehs <- wages %>% lm(log(income) ~ education + height + sex, data = .)

wages %>%
 spread_predictions(mod_h, mod_eh, mod_ehs)

## # A tibble: 5,266 x 11
##    income height weight   age marital sex   education  afqt mod_h mod_eh
##     <int>  <dbl>  <int> <int> <fct>   <fct>     <int> <dbl> <dbl>  <dbl>
##  1  19000     60    155    53 married fema        13  6.84  10.1   10.1
##  2  35000     70    156    51 married fema        10 49.4   10.6   10.1
##  3 105000     65    195    52 married male         16 99.4   10.4   10.7
##  4  40000     63    197    54 married fema        14 44.0   10.3   10.3
##  5  75000     66    190    49 married male         14 59.7   10.4   10.5
##  6 102000     68    200    49 divorc fema        18 98.8   10.5   11.1
##  7  70000     64    160    54 divorc fema        12 50.3   10.3   10.1
##  8  60000     69    162    55 divorc male         12 89.7   10.6   10.3
##  9 150000     69    194    54 divorc male         13 96.0   10.6   10.5
## 10 115000     64    145    53 married fema        16 67.0   10.3   10.7
## #  with 5,256 more rows, and 1 more variable: mod_ehs <dbl>

wages %>%
 gather_predictions(mod_h, mod_eh, mod_ehs)

## # A tibble: 15,798 x 10
##    model income height weight   age marital  sex    education  afqt  pred
##    <chr>  <int>  <dbl>  <int> <int> <fct>    <fct>      <int> <dbl> <dbl>
##  1 mod_h  19000     60    155    53 married  female        13  6.84  10.1
##  2 mod_h  35000     70    156    51 married  female        10 49.4   10.6
##  3 mod_h 105000     65    195    52 married  male          16 99.4   10.4
##  4 mod_h  40000     63    197    54 married  female        14 44.0   10.3
##  5 mod_h  75000     66    190    49 married  male          14 59.7   10.4
##  6 mod_h 102000     68    200    49 divorced female        18 98.8   10.5
##  7 mod_h  70000     64    160    54 divorced female        12 50.3   10.3
##  8 mod_h  60000     69    162    55 divorced male          12 89.7   10.6
##  9 mod_h 150000     69    194    54 divorced male          13 96.0   10.6
## 10 mod_h 115000     64    145    53 married  female        16 67.0   10.3
## #  with 15,788 more rows
…
